simulators/c++3/vcdTrace.vcd
$date
Thu Mar 27 16:37:17 2014
$end

$version
Daniel's TML simulator
$end

$timescale
1 ns
$end

$scope module Simulation $end
$var wire 1 cpu3 MAINcpu_0 $end
$var wire 1 cpu9 FEP_0 $end
$var wire 1 cpu11 ADAIFEMdma_0 $end
$var wire 1 cpu14 ADAIFEM_0 $end
$var wire 1 cpu15 BRIDGEdma_0 $end
$var wire 1 cpu16 FEPdma_0 $end
$var wire 1 busMAINbus_0 MAINbus_0 $end
$var wire 1 busCrossbar_0 Crossbar_0 $end
$var wire 1 busFEPbus_0 FEPbus_0 $end
$var wire 1 busADAIFEMbus_0 ADAIFEMbus_0 $end
$var wire 1 ta17 HOCAppMAPPED__fork3 $end
$var wire 1 ta20 HOCAppMAPPED__F_DMAcws $end
$var wire 1 ta23 HOCAppMAPPED__F_DMAvsum $end
$var wire 1 ta26 HOCAppMAPPED__F_DMAcwm2 $end
$var wire 1 ta29 HOCAppMAPPED__F_DMAfork1 $end
$var wire 1 ta32 HOCAppMAPPED__F_DMAsink $end
$var wire 1 ta35 HOCAppMAPPED__join1 $end
$var wire 1 ta40 HOCAppMAPPED__join2 $end
$var wire 1 ta44 HOCAppMAPPED__fork1 $end
$var wire 1 ta47 HOCAppMAPPED__fork2 $end
$var wire 1 ta51 HOCAppMAPPED__F_src $end
$var wire 1 ta54 HOCAppMAPPED__F_acc $end
$var wire 1 ta57 HOCAppMAPPED__F_cws $end
$var wire 1 ta60 HOCAppMAPPED__F_vsum $end
$var wire 1 ta63 HOCAppMAPPED__F_cwm1 $end
$var wire 1 ta66 HOCAppMAPPED__F_cwm2 $end
$var wire 1 ta69 HOCAppMAPPED__X_acc $end
$var wire 1 ta72 HOCAppMAPPED__SINK $end
$var wire 1 ta75 HOCAppMAPPED__X_vsum $end
$var wire 1 ta78 HOCAppMAPPED__X_cwm1 $end
$var wire 1 ta81 HOCAppMAPPED__X_cws $end
$var wire 1 ta84 HOCAppMAPPED__X_cwm2 $end
$var wire 1 ta87 HOCAppMAPPED__X_src $end
$var wire 1 ta90 HOCAppMAPPED__X_DMAcwm2 $end
$var wire 1 ta93 HOCAppMAPPED__X_DMAfork1 $end
$var wire 1 ta96 HOCAppMAPPED__X_DMAcws $end
$var wire 1 ta99 HOCAppMAPPED__X_DMAvsum $end
$var wire 1 ta102 HOCAppMAPPED__X_DMAsink $end
$var integer 32 clk Clock $end
$upscope $end
$enddefinitions  $end

#0
b0 clk
1cpu3
0cpu11
0busMAINbus_0
0ta29
0ta81
0ta102
0ta78
0ta99
0ta26
0ta75
0ta72
0cpu16
0ta23
0ta69
0ta66
0ta20
0ta63
0ta96
0ta60
0cpu9
0cpu15
0ta17
0ta57
0ta54
0busADAIFEMbus_0
1ta51
0ta47
0cpu14
0busFEPbus_0
0ta44
0ta40
0ta93
0busCrossbar_0
0ta35
0ta90
0ta32
0ta87
0ta84
#1
1cpu14
1ta87
#2
1ta44
#3
0cpu3
0ta44
#20
r20 clk
#40
r40 clk
#60
r60 clk
#80
r80 clk
#100
r100 clk
#120
r120 clk
#140
r140 clk
#160
r160 clk
#180
r180 clk
#200
r200 clk
#220
r220 clk
#240
r240 clk
#260
r260 clk
#280
r280 clk
#300
r300 clk
#320
r320 clk
#340
r340 clk
#360
r360 clk
#380
r380 clk
#400
r400 clk
#420
r420 clk
#440
r440 clk
#460
r460 clk
#480
r480 clk
#500
r500 clk
#520
r520 clk
#540
r540 clk
#560
r560 clk
#580
r580 clk
#600
r600 clk
#620
r620 clk
#640
r640 clk
#660
r660 clk
#680
r680 clk
#700
r700 clk
#720
r720 clk
#740
r740 clk
#760
r760 clk
#780
r780 clk
#800
r800 clk
#820
r820 clk
#840
r840 clk
#860
r860 clk
#880
r880 clk
#900
r900 clk
#920
r920 clk
#940
r940 clk
#960
r960 clk
#980
r980 clk
#1000
r1000 clk
#1020
r1020 clk
#1040
r1040 clk
#1060
r1060 clk
#1080
r1080 clk
#1100
r1100 clk
#1120
r1120 clk
#1140
r1140 clk
#1160
r1160 clk
#1180
r1180 clk
#1200
r1200 clk
#1220
r1220 clk
#1240
r1240 clk
#1260
r1260 clk
#1280
r1280 clk
#1300
r1300 clk
#1320
r1320 clk
#1340
r1340 clk
#1360
r1360 clk
#1380
r1380 clk
#1400
r1400 clk
#1420
r1420 clk
#1440
r1440 clk
#1460
r1460 clk
#1480
r1480 clk
#1500
r1500 clk
#1520
r1520 clk
#1540
r1540 clk
#1560
r1560 clk
#1580
r1580 clk
#1600
r1600 clk
#1620
r1620 clk
#1640
r1640 clk
#1660
r1660 clk
#1680
r1680 clk
#1700
r1700 clk
#1720
r1720 clk
#1740
r1740 clk
#1760
r1760 clk
#1780
r1780 clk
#1800
r1800 clk
#1820
r1820 clk
#1840
r1840 clk
#1860
r1860 clk
#1880
r1880 clk
#1900
r1900 clk
#1920
r1920 clk
#1940
r1940 clk
#1960
r1960 clk
#1980
r1980 clk
#2000
r2000 clk
#2020
r2020 clk
#2040
r2040 clk
#2050
1busMAINbus_0
1busADAIFEMbus_0
1busCrossbar_0
#2055
1cpu3
1ta44
#2060
r2060 clk
#2080
r2080 clk
#2100
r2100 clk
#2119
0cpu3
0ta44
#2120
b100001001000 clk
1cpu3
1ta44
#2140
r2140 clk
#2160
r2160 clk
#2180
r2180 clk
#2200
r2200 clk
#2220
r2220 clk
#2240
r2240 clk
#2260
r2260 clk
#2280
r2280 clk
#2300
r2300 clk
#2320
r2320 clk
#2340
r2340 clk
#2360
r2360 clk
#2380
r2380 clk
#2400
r2400 clk
#2420
r2420 clk
#2440
r2440 clk
#2460
r2460 clk
#2480
r2480 clk
#2500
r2500 clk
#2520
r2520 clk
#2540
r2540 clk
#2560
r2560 clk
#2580
r2580 clk
#2600
r2600 clk
#2620
r2620 clk
#2640
r2640 clk
#2660
r2660 clk
#2680
r2680 clk
#2700
r2700 clk
#2720
r2720 clk
#2740
r2740 clk
#2760
r2760 clk
#2780
r2780 clk
#2800
r2800 clk
#2820
r2820 clk
#2840
r2840 clk
#2860
r2860 clk
#2880
r2880 clk
#2900
r2900 clk
#2920
r2920 clk
#2940
r2940 clk
#2960
r2960 clk
#2980
r2980 clk
#3000
r3000 clk
#3020
r3020 clk
#3040
r3040 clk
#3060
r3060 clk
#3080
r3080 clk
#3100
r3100 clk
#3120
r3120 clk
#3140
r3140 clk
#3160
r3160 clk
#3180
r3180 clk
#3200
r3200 clk
#3220
r3220 clk
#3240
r3240 clk
#3260
r3260 clk
#3280
r3280 clk
#3300
r3300 clk
#3320
r3320 clk
#3340
r3340 clk
#3360
r3360 clk
#3380
r3380 clk
#3400
r3400 clk
#3420
r3420 clk
#3440
r3440 clk
#3460
r3460 clk
#3480
r3480 clk
#3500
r3500 clk
#3520
r3520 clk
#3540
r3540 clk
#3560
r3560 clk
#3580
r3580 clk
#3600
r3600 clk
#3620
r3620 clk
#3640
r3640 clk
#3660
r3660 clk
#3680
r3680 clk
#3700
r3700 clk
#3720
r3720 clk
#3740
r3740 clk
#3760
r3760 clk
#3780
r3780 clk
#3800
r3800 clk
#3820
r3820 clk
#3840
r3840 clk
#3860
r3860 clk
#3880
r3880 clk
#3900
r3900 clk
#3920
r3920 clk
#3940
r3940 clk
#3960
r3960 clk
#3980
r3980 clk
#4000
r4000 clk
#4020
r4020 clk
#4040
r4040 clk
#4060
r4060 clk
#4080
r4080 clk
#4100
r4100 clk
#4120
r4120 clk
#4140
r4140 clk
#4160
r4160 clk
#4180
r4180 clk
#4200
r4200 clk
#4220
r4220 clk
#4240
r4240 clk
#4260
r4260 clk
#4280
r4280 clk
#4300
r4300 clk
#4320
r4320 clk
#4340
r4340 clk
#4360
r4360 clk
#4380
r4380 clk
#4400
r4400 clk
#4420
r4420 clk
#4440
r4440 clk
#4460
r4460 clk
#4480
r4480 clk
#4500
r4500 clk
#4520
r4520 clk
#4540
r4540 clk
#4560
r4560 clk
#4580
r4580 clk
#4600
r4600 clk
#4620
r4620 clk
#4640
r4640 clk
#4660
r4660 clk
#4680
r4680 clk
#4700
r4700 clk
#4720
r4720 clk
#4740
r4740 clk
#4760
r4760 clk
#4780
r4780 clk
#4800
r4800 clk
#4820
r4820 clk
#4840
r4840 clk
#4860
r4860 clk
#4880
r4880 clk
#4900
r4900 clk
#4920
r4920 clk
#4940
r4940 clk
#4960
r4960 clk
#4980
r4980 clk
#5000
r5000 clk
#5020
r5020 clk
#5040
r5040 clk
#5060
r5060 clk
#5080
r5080 clk
#5100
r5100 clk
#5120
r5120 clk
#5140
r5140 clk
#5160
r5160 clk
#5180
r5180 clk
#5200
r5200 clk
#5220
r5220 clk
#5240
r5240 clk
#5260
r5260 clk
#5280
r5280 clk
#5300
r5300 clk
#5320
r5320 clk
#5340
r5340 clk
#5360
r5360 clk
#5380
r5380 clk
#5400
r5400 clk
#5420
r5420 clk
#5440
r5440 clk
#5460
r5460 clk
#5480
r5480 clk
#5500
r5500 clk
#5520
r5520 clk
#5540
r5540 clk
#5560
r5560 clk
#5580
r5580 clk
#5600
r5600 clk
#5620
r5620 clk
#5640
r5640 clk
#5660
r5660 clk
#5680
r5680 clk
#5700
r5700 clk
#5720
r5720 clk
#5740
r5740 clk
#5760
r5760 clk
#5780
r5780 clk
#5800
r5800 clk
#5820
r5820 clk
#5840
r5840 clk
#5860
r5860 clk
#5880
r5880 clk
#5900
r5900 clk
#5920
r5920 clk
#5940
r5940 clk
#5960
r5960 clk
#5980
r5980 clk
#6000
r6000 clk
#6020
r6020 clk
#6040
r6040 clk
#6060
r6060 clk
#6080
r6080 clk
#6100
r6100 clk
#6120
r6120 clk
#6140
r6140 clk
#6146
0ta87
0cpu14
0busMAINbus_0
0busADAIFEMbus_0
0busCrossbar_0
#6160
r6160 clk
#6161
1ta29
1busMAINbus_0
#6180
r6180 clk
#6200
r6200 clk
#6220
r6220 clk
#6240
r6240 clk
#6260
r6260 clk
#6280
r6280 clk
#6300
r6300 clk
#6320
r6320 clk
#6340
r6340 clk
#6360
r6360 clk
#6380
r6380 clk
#6400
r6400 clk
#6420
r6420 clk
#6440
r6440 clk
#6460
r6460 clk
#6480
r6480 clk
#6500
r6500 clk
#6520
r6520 clk
#6540
r6540 clk
#6560
r6560 clk
#6580
r6580 clk
#6600
r6600 clk
#6620
r6620 clk
#6640
r6640 clk
#6660
r6660 clk
#6680
r6680 clk
#6700
r6700 clk
#6720
r6720 clk
#6740
r6740 clk
#6760
r6760 clk
#6780
r6780 clk
#6800
r6800 clk
#6820
r6820 clk
#6840
r6840 clk
#6860
r6860 clk
#6880
r6880 clk
#6900
r6900 clk
#6920
r6920 clk
#6940
r6940 clk
#6960
r6960 clk
#6980
r6980 clk
#7000
r7000 clk
#7020
r7020 clk
#7040
r7040 clk
#7060
r7060 clk
#7080
r7080 clk
#7100
r7100 clk
#7120
r7120 clk
#7140
r7140 clk
#7160
r7160 clk
#7180
r7180 clk
#7200
r7200 clk
#7220
r7220 clk
#7240
r7240 clk
#7260
r7260 clk
#7280
r7280 clk
#7300
r7300 clk
#7320
r7320 clk
#7340
r7340 clk
#7360
r7360 clk
#7380
r7380 clk
#7400
r7400 clk
#7420
r7420 clk
#7440
r7440 clk
#7460
r7460 clk
#7480
r7480 clk
#7500
r7500 clk
#7520
r7520 clk
#7540
r7540 clk
#7560
r7560 clk
#7580
r7580 clk
#7600
r7600 clk
#7620
r7620 clk
#7640
r7640 clk
#7660
r7660 clk
#7680
r7680 clk
#7700
r7700 clk
#7720
r7720 clk
#7740
r7740 clk
#7760
r7760 clk
#7780
r7780 clk
#7800
r7800 clk
#7820
r7820 clk
#7840
r7840 clk
#7860
r7860 clk
#7880
r7880 clk
#7900
r7900 clk
#7920
r7920 clk
#7940
r7940 clk
#7960
r7960 clk
#7980
r7980 clk
#8000
r8000 clk
#8020
r8020 clk
#8040
r8040 clk
#8060
r8060 clk
#8080
r8080 clk
#8100
r8100 clk
#8120
r8120 clk
#8140
r8140 clk
#8160
r8160 clk
#8180
r8180 clk
#8200
r8200 clk
#8220
r8220 clk
#8240
r8240 clk
#8260
r8260 clk
#8280
r8280 clk
#8300
r8300 clk
#8320
r8320 clk
#8340
r8340 clk
#8360
r8360 clk
#8380
r8380 clk
#8400
r8400 clk
#8420
r8420 clk
#8440
r8440 clk
#8460
r8460 clk
#8480
r8480 clk
#8500
r8500 clk
#8520
r8520 clk
#8540
r8540 clk
#8560
r8560 clk
#8580
r8580 clk
#8600
r8600 clk
#8620
r8620 clk
#8640
r8640 clk
#8660
r8660 clk
#8680
r8680 clk
#8700
r8700 clk
#8720
r8720 clk
#8740
r8740 clk
#8760
r8760 clk
#8780
r8780 clk
#8800
r8800 clk
#8820
r8820 clk
#8840
r8840 clk
#8860
r8860 clk
#8880
r8880 clk
#8900
r8900 clk
#8920
r8920 clk
#8940
r8940 clk
#8960
r8960 clk
#8980
r8980 clk
#9000
r9000 clk
#9020
r9020 clk
#9040
r9040 clk
#9060
r9060 clk
#9080
r9080 clk
#9100
r9100 clk
#9120
r9120 clk
#9140
r9140 clk
#9160
r9160 clk
#9180
r9180 clk
#9200
r9200 clk
#9220
r9220 clk
#9240
r9240 clk
#9260
r9260 clk
#9280
r9280 clk
#9300
r9300 clk
#9320
r9320 clk
#9340
r9340 clk
#9360
r9360 clk
#9380
r9380 clk
#9400
r9400 clk
#9420
r9420 clk
#9440
r9440 clk
#9460
r9460 clk
#9480
r9480 clk
#9500
r9500 clk
#9520
r9520 clk
#9540
r9540 clk
#9560
r9560 clk
#9580
r9580 clk
#9600
r9600 clk
#9620
r9620 clk
#9640
r9640 clk
#9660
r9660 clk
#9680
r9680 clk
#9700
r9700 clk
#9720
r9720 clk
#9740
r9740 clk
#9760
r9760 clk
#9780
r9780 clk
#9800
r9800 clk
#9820
r9820 clk
#9840
r9840 clk
#9860
r9860 clk
#9880
r9880 clk
#9900
r9900 clk
#9920
r9920 clk
#9940
r9940 clk
#9960
r9960 clk
#9980
r9980 clk
#10000
r10000 clk
#10020
r10020 clk
#10040
r10040 clk
#10060
r10060 clk
#10080
r10080 clk
#10100
r10100 clk
#10120
r10120 clk
#10140
r10140 clk
#10160
r10160 clk
#10180
r10180 clk
#10200
r10200 clk
#10220
r10220 clk
#10240
r10240 clk
#10248
0ta44
1ta29
0busMAINbus_0
#10250
1cpu15
1ta93
#10251
1ta17
0ta29
#10252
0cpu3
0ta17
#10260
r10260 clk
#10280
r10280 clk
#10287
1cpu3
1ta44
1busMAINbus_0
#10296
0busMAINbus_0
#10297
1ta32
1busMAINbus_0
#10300
r10300 clk
#10320
r10320 clk
#10340
r10340 clk
#10360
r10360 clk
#10380
r10380 clk
#10400
r10400 clk
#10420
r10420 clk
#10440
r10440 clk
#10460
r10460 clk
#10480
r10480 clk
#10500
r10500 clk
#10520
r10520 clk
#10540
r10540 clk
#10560
r10560 clk
#10580
r10580 clk
#10600
r10600 clk
#10620
r10620 clk
#10640
r10640 clk
#10660
r10660 clk
#10680
r10680 clk
#10700
r10700 clk
#10720
r10720 clk
#10740
r10740 clk
#10760
r10760 clk
#10780
r10780 clk
#10800
r10800 clk
#10820
r10820 clk
#10840
r10840 clk
#10860
r10860 clk
#10880
r10880 clk
#10900
r10900 clk
#10920
r10920 clk
#10940
r10940 clk
#10960
r10960 clk
#10980
r10980 clk
#11000
r11000 clk
#11020
r11020 clk
#11040
r11040 clk
#11060
r11060 clk
#11080
r11080 clk
#11100
r11100 clk
#11120
r11120 clk
#11140
r11140 clk
#11160
r11160 clk
#11180
r11180 clk
#11200
r11200 clk
#11220
r11220 clk
#11240
r11240 clk
#11260
r11260 clk
#11280
r11280 clk
#11300
r11300 clk
#11320
r11320 clk
#11340
r11340 clk
#11360
r11360 clk
#11380
r11380 clk
#11400
r11400 clk
#11420
r11420 clk
#11440
r11440 clk
#11460
r11460 clk
#11480
r11480 clk
#11500
r11500 clk
#11520
r11520 clk
#11540
r11540 clk
#11560
r11560 clk
#11580
r11580 clk
#11600
r11600 clk
#11620
r11620 clk
#11640
r11640 clk
#11660
r11660 clk
#11680
r11680 clk
#11700
r11700 clk
#11720
r11720 clk
#11740
r11740 clk
#11760
r11760 clk
#11780
r11780 clk
#11800
r11800 clk
#11820
r11820 clk
#11840
r11840 clk
#11860
r11860 clk
#11880
r11880 clk
#11900
r11900 clk
#11920
r11920 clk
#11940
r11940 clk
#11960
r11960 clk
#11980
r11980 clk
#12000
r12000 clk
#12020
r12020 clk
#12040
r12040 clk
#12060
r12060 clk
#12080
r12080 clk
#12100
r12100 clk
#12120
r12120 clk
#12140
r12140 clk
#12160
r12160 clk
#12180
r12180 clk
#12200
r12200 clk
#12220
r12220 clk
#12240
r12240 clk
#12260
r12260 clk
#12280
r12280 clk
#12300
r12300 clk
#12320
r12320 clk
#12340
r12340 clk
#12360
r12360 clk
#12380
r12380 clk
#12400
r12400 clk
#12420
r12420 clk
#12440
r12440 clk
#12460
r12460 clk
#12480
r12480 clk
#12500
r12500 clk
#12520
r12520 clk
#12540
r12540 clk
#12560
r12560 clk
#12580
r12580 clk
#12600
r12600 clk
#12620
r12620 clk
#12640
r12640 clk
#12660
r12660 clk
#12680
r12680 clk
#12700
r12700 clk
#12720
r12720 clk
#12740
r12740 clk
#12760
r12760 clk
#12780
r12780 clk
#12800
r12800 clk
#12820
r12820 clk
#12840
r12840 clk
#12860
r12860 clk
#12880
r12880 clk
#12900
r12900 clk
#12920
r12920 clk
#12940
r12940 clk
#12960
r12960 clk
#12980
r12980 clk
#13000
r13000 clk
#13020
r13020 clk
#13040
r13040 clk
#13060
r13060 clk
#13080
r13080 clk
#13100
r13100 clk
#13120
r13120 clk
#13140
r13140 clk
#13160
r13160 clk
#13180
r13180 clk
#13200
r13200 clk
#13220
r13220 clk
#13240
r13240 clk
#13260
r13260 clk
#13280
r13280 clk
#13300
r13300 clk
#13320
r13320 clk
#13340
r13340 clk
#13360
r13360 clk
#13380
r13380 clk
#13400
r13400 clk
#13420
r13420 clk
#13440
r13440 clk
#13460
r13460 clk
#13480
r13480 clk
#13500
r13500 clk
#13520
r13520 clk
#13540
r13540 clk
#13560
r13560 clk
#13580
r13580 clk
#13600
r13600 clk
#13620
r13620 clk
#13640
r13640 clk
#13660
r13660 clk
#13680
r13680 clk
#13700
r13700 clk
#13720
r13720 clk
#13740
r13740 clk
#13760
r13760 clk
#13780
r13780 clk
#13800
r13800 clk
#13820
r13820 clk
#13840
r13840 clk
#13860
r13860 clk
#13880
r13880 clk
#13900
r13900 clk
#13920
r13920 clk
#13940
r13940 clk
#13960
r13960 clk
#13980
r13980 clk
#14000
r14000 clk
#14020
r14020 clk
#14040
r14040 clk
#14060
r14060 clk
#14080
r14080 clk
#14100
r14100 clk
#14120
r14120 clk
#14140
r14140 clk
#14160
r14160 clk
#14180
r14180 clk
#14200
r14200 clk
#14220
r14220 clk
#14240
r14240 clk
#14260
r14260 clk
#14280
r14280 clk
#14300
r14300 clk
#14320
r14320 clk
#14340
r14340 clk
#14360
r14360 clk
#14380
r14380 clk
#14384
0ta44
1ta32
0busMAINbus_0
#14386
1ta102
#14387
0cpu3
0ta32
#14400
r14400 clk
#14420
r14420 clk
#14440
r14440 clk
#14460
r14460 clk
#14480
r14480 clk
#14500
r14500 clk
#14520
r14520 clk
#14540
r14540 clk
#14560
r14560 clk
#14580
r14580 clk
#14600
r14600 clk
#14620
r14620 clk
#14640
r14640 clk
#14660
r14660 clk
#14680
r14680 clk
#14700
r14700 clk
#14720
r14720 clk
#14740
r14740 clk
#14760
r14760 clk
#14780
r14780 clk
#14800
r14800 clk
#14820
r14820 clk
#14840
r14840 clk
#14860
r14860 clk
#14880
r14880 clk
#14900
r14900 clk
#14920
r14920 clk
#14940
r14940 clk
#14960
r14960 clk
#14980
r14980 clk
#15000
r15000 clk
#15020
r15020 clk
#15040
r15040 clk
#15060
r15060 clk
#15080
r15080 clk
#15100
r15100 clk
#15120
r15120 clk
#15140
r15140 clk
#15160
r15160 clk
#15180
r15180 clk
#15200
r15200 clk
#15220
r15220 clk
#15240
r15240 clk
#15260
r15260 clk
#15280
r15280 clk
#15300
r15300 clk
#15320
r15320 clk
#15340
r15340 clk
#15360
r15360 clk
#15380
r15380 clk
#15400
r15400 clk
#15420
r15420 clk
#15440
r15440 clk
#15460
r15460 clk
#15480
r15480 clk
#15500
r15500 clk
#15520
r15520 clk
#15540
r15540 clk
#15560
r15560 clk
#15580
r15580 clk
#15600
r15600 clk
#15620
r15620 clk
#15640
r15640 clk
#15660
r15660 clk
#15680
r15680 clk
#15700
r15700 clk
#15720
r15720 clk
#15740
r15740 clk
#15760
r15760 clk
#15780
r15780 clk
#15800
r15800 clk
#15820
r15820 clk
#15840
r15840 clk
#15860
r15860 clk
#15880
r15880 clk
#15900
r15900 clk
#15920
r15920 clk
#15940
r15940 clk
#15960
r15960 clk
#15980
r15980 clk
#16000
r16000 clk
#16020
r16020 clk
#16040
r16040 clk
#16060
r16060 clk
#16080
r16080 clk
#16100
r16100 clk
#16120
r16120 clk
#16140
r16140 clk
#16160
r16160 clk
#16180
r16180 clk
#16200
r16200 clk
#16220
r16220 clk
#16240
r16240 clk
#16260
r16260 clk
#16280
r16280 clk
#16300
r16300 clk
#16320
r16320 clk
#16340
r16340 clk
#16360
r16360 clk
#16380
r16380 clk
#16400
r16400 clk
#16420
r16420 clk
#16440
r16440 clk
#16460
r16460 clk
#16480
r16480 clk
#16500
r16500 clk
#16520
r16520 clk
#16540
r16540 clk
#16560
r16560 clk
#16580
r16580 clk
#16600
r16600 clk
#16620
r16620 clk
#16640
r16640 clk
#16660
r16660 clk
#16680
r16680 clk
#16700
r16700 clk
#16720
r16720 clk
#16740
r16740 clk
#16760
r16760 clk
#16780
r16780 clk
#16800
r16800 clk
#16820
r16820 clk
#16840
r16840 clk
#16860
r16860 clk
#16880
r16880 clk
#16900
r16900 clk
#16920
r16920 clk
#16940
r16940 clk
#16960
r16960 clk
#16980
r16980 clk
#17000
r17000 clk
#17020
r17020 clk
#17040
r17040 clk
#17060
r17060 clk
#17080
r17080 clk
#17100
r17100 clk
#17120
r17120 clk
#17140
r17140 clk
#17160
r17160 clk
#17180
r17180 clk
#17200
r17200 clk
#17220
r17220 clk
#17240
r17240 clk
#17260
r17260 clk
#17280
r17280 clk
#17300
r17300 clk
#17320
r17320 clk
#17340
r17340 clk
#17360
r17360 clk
#17380
r17380 clk
#17400
r17400 clk
#17420
r17420 clk
#17440
r17440 clk
#17460
r17460 clk
#17480
r17480 clk
#17500
r17500 clk
#17520
r17520 clk
#17540
r17540 clk
#17560
r17560 clk
#17580
r17580 clk
#17600
r17600 clk
#17620
r17620 clk
#17640
r17640 clk
#17660
r17660 clk
#17680
r17680 clk
#17700
r17700 clk
#17720
r17720 clk
#17740
r17740 clk
#17760
r17760 clk
#17780
r17780 clk
#17800
r17800 clk
#17820
r17820 clk
#17840
r17840 clk
#17860
r17860 clk
#17880
r17880 clk
#17900
r17900 clk
#17920
r17920 clk
#17940
r17940 clk
#17960
r17960 clk
#17980
r17980 clk
#18000
r18000 clk
#18020
r18020 clk
#18040
r18040 clk
#18060
r18060 clk
#18080
r18080 clk
#18100
r18100 clk
#18120
r18120 clk
#18140
r18140 clk
#18160
r18160 clk
#18180
r18180 clk
#18200
r18200 clk
#18220
r18220 clk
#18240
r18240 clk
#18260
r18260 clk
#18280
r18280 clk
#18300
r18300 clk
#18320
r18320 clk
#18340
r18340 clk
#18360
r18360 clk
#18380
r18380 clk
#18400
r18400 clk
#18420
r18420 clk
#18440
r18440 clk
#18460
r18460 clk
#18480
r18480 clk
#18500
r18500 clk
#18520
r18520 clk
#18540
r18540 clk
#18560
r18560 clk
#18580
r18580 clk
#18600
r18600 clk
#18620
r18620 clk
#18640
r18640 clk
#18660
r18660 clk
#18680
r18680 clk
#18700
r18700 clk
#18720
r18720 clk
#18740
r18740 clk
#18760
r18760 clk
#18780
r18780 clk
#18800
r18800 clk
#18820
r18820 clk
#18840
r18840 clk
#18860
r18860 clk
#18880
r18880 clk
#18900
r18900 clk
#18920
r18920 clk
#18940
r18940 clk
#18960
r18960 clk
#18980
r18980 clk
#19000
r19000 clk
#19020
r19020 clk
#19040
r19040 clk
#19060
r19060 clk
#19080
r19080 clk
#19100
r19100 clk
#19120
r19120 clk
#19140
r19140 clk
#19160
r19160 clk
#19180
r19180 clk
#19200
r19200 clk
#19220
r19220 clk
#19240
r19240 clk
#19260
r19260 clk
#19280
r19280 clk
#19300
r19300 clk
#19320
r19320 clk
#19340
r19340 clk
#19360
r19360 clk
#19380
r19380 clk
#19400
r19400 clk
#19420
r19420 clk
#19440
r19440 clk
#19460
r19460 clk
#19480
r19480 clk
#19500
r19500 clk
#19520
r19520 clk
#19540
r19540 clk
#19560
r19560 clk
#19580
r19580 clk
#19600
r19600 clk
#19620
r19620 clk
#19640
r19640 clk
#19660
r19660 clk
#19680
r19680 clk
#19700
r19700 clk
#19720
r19720 clk
#19740
r19740 clk
#19760
r19760 clk
#19780
r19780 clk
#19800
r19800 clk
#19820
r19820 clk
#19840
r19840 clk
#19860
r19860 clk
#19880
r19880 clk
#19900
r19900 clk
#19920
r19920 clk
#19940
r19940 clk
#19960
r19960 clk
#19980
r19980 clk
#20000
r20000 clk
#20020
r20020 clk
#20040
r20040 clk
#20060
r20060 clk
#20080
r20080 clk
#20100
r20100 clk
#20120
r20120 clk
#20140
r20140 clk
#20160
r20160 clk
#20180
r20180 clk
#20200
r20200 clk
#20220
r20220 clk
#20240
r20240 clk
#20260
r20260 clk
#20280
r20280 clk
#20300
r20300 clk
#20320
r20320 clk
#20340
r20340 clk
#20360
r20360 clk
#20380
r20380 clk
#20400
r20400 clk
#20420
r20420 clk
#20440
r20440 clk
#20460
r20460 clk
#20480
r20480 clk
#20500
r20500 clk
#20520
r20520 clk
#20540
r20540 clk
#20560
r20560 clk
#20580
r20580 clk
#20600
r20600 clk
#20620
r20620 clk
#20640
r20640 clk
#20660
r20660 clk
#20680
r20680 clk
#20700
r20700 clk
#20720
r20720 clk
#20740
r20740 clk
#20760
r20760 clk
#20780
r20780 clk
#20800
r20800 clk
#20820
r20820 clk
#20840
r20840 clk
#20860
r20860 clk
#20880
r20880 clk
#20900
r20900 clk
#20920
r20920 clk
#20940
r20940 clk
#20960
r20960 clk
#20980
r20980 clk
#21000
r21000 clk
#21020
r21020 clk
#21040
r21040 clk
#21060
r21060 clk
#21080
r21080 clk
#21100
r21100 clk
#21120
r21120 clk
#21140
r21140 clk
#21160
r21160 clk
#21180
r21180 clk
#21200
r21200 clk
#21220
r21220 clk
#21240
r21240 clk
#21260
r21260 clk
#21280
r21280 clk
#21300
r21300 clk
#21320
r21320 clk
#21340
r21340 clk
#21360
r21360 clk
#21380
r21380 clk
#21400
r21400 clk
#21420
r21420 clk
#21440
r21440 clk
#21460
r21460 clk
#21480
r21480 clk
#21500
r21500 clk
#21520
r21520 clk
#21540
r21540 clk
#21560
r21560 clk
#21580
r21580 clk
#21600
r21600 clk
#21620
r21620 clk
#21640
r21640 clk
#21660
r21660 clk
#21680
r21680 clk
#21700
r21700 clk
#21720
r21720 clk
#21740
r21740 clk
#21760
r21760 clk
#21780
r21780 clk
#21800
r21800 clk
#21820
r21820 clk
#21840
r21840 clk
#21860
r21860 clk
#21880
r21880 clk
#21900
r21900 clk
#21920
r21920 clk
#21940
r21940 clk
#21960
r21960 clk
#21980
r21980 clk
#22000
r22000 clk
#22020
r22020 clk
#22040
r22040 clk
#22060
r22060 clk
#22080
r22080 clk
#22100
r22100 clk
#22120
r22120 clk
#22140
r22140 clk
#22160
r22160 clk
#22180
r22180 clk
#22200
r22200 clk
#22220
r22220 clk
#22240
r22240 clk
#22260
r22260 clk
#22280
r22280 clk
#22300
r22300 clk
#22320
r22320 clk
#22340
r22340 clk
#22360
r22360 clk
#22380
r22380 clk
#22400
r22400 clk
#22420
r22420 clk
#22440
r22440 clk
#22460
r22460 clk
#22480
r22480 clk
#22500
r22500 clk
#22520
r22520 clk
#22540
r22540 clk
#22560
r22560 clk
#22580
r22580 clk
#22600
r22600 clk
#22620
r22620 clk
#22640
r22640 clk
#22660
r22660 clk
#22680
r22680 clk
#22700
r22700 clk
#22720
r22720 clk
#22740
r22740 clk
#22760
r22760 clk
#22780
r22780 clk
#22800
r22800 clk
#22820
r22820 clk
#22840
r22840 clk
#22860
r22860 clk
#22880
r22880 clk
#22900
r22900 clk
#22920
r22920 clk
#22940
r22940 clk
#22960
r22960 clk
#22980
r22980 clk
#23000
r23000 clk
#23020
r23020 clk
#23040
r23040 clk
#23060
r23060 clk
#23080
r23080 clk
#23100
r23100 clk
#23120
r23120 clk
#23140
r23140 clk
#23160
r23160 clk
#23180
r23180 clk
#23200
r23200 clk
#23220
r23220 clk
#23240
r23240 clk
#23260
r23260 clk
#23280
r23280 clk
#23300
r23300 clk
#23320
r23320 clk
#23340
r23340 clk
#23360
r23360 clk
#23380
r23380 clk
#23400
r23400 clk
#23420
r23420 clk
#23440
r23440 clk
#23460
r23460 clk
#23480
r23480 clk
#23500
r23500 clk
#23520
r23520 clk
#23540
r23540 clk
#23560
r23560 clk
#23580
r23580 clk
#23600
r23600 clk
#23620
r23620 clk
#23640
r23640 clk
#23660
r23660 clk
#23680
r23680 clk
#23700
r23700 clk
#23720
r23720 clk
#23740
r23740 clk
#23760
r23760 clk
#23780
r23780 clk
#23800
r23800 clk
#23820
r23820 clk
#23840
r23840 clk
#23860
r23860 clk
#23880
r23880 clk
#23900
r23900 clk
#23920
r23920 clk
#23940
r23940 clk
#23960
r23960 clk
#23980
r23980 clk
#24000
r24000 clk
#24020
r24020 clk
#24040
r24040 clk
#24060
r24060 clk
#24080
r24080 clk
#24100
r24100 clk
#24120
r24120 clk
